{
  "href" : "https://api.spotify.com/v1/users/sregg/starred/tracks?offset=0&limit=10",
  "items" : [ {
    "added_at" : "2010-05-08T10:53:29Z",
    "added_by" : null,
    "track" : {
      "album" : {
        "album_type" : "album",
        "available_markets" : [ ],
        "external_urls" : {
          "spotify" : "https://open.spotify.com/album/4Z1zhNhmbQ9G1V7Lsrz3Gt"
        },
        "href" : "https://api.spotify.com/v1/albums/4Z1zhNhmbQ9G1V7Lsrz3Gt",
        "id" : "4Z1zhNhmbQ9G1V7Lsrz3Gt",
        "images" : [ {
          "height" : 640,
          "url" : "https://i.scdn.co/image/f7464d8b906543db16a61f26d8811b784a8a629c",
          "width" : 640
        }, {
          "height" : 300,
          "url" : "https://i.scdn.co/image/5f10aa1f7982ed9cf9c92d394a871ce13b598bf4",
          "width" : 300
        }, {
          "height" : 64,
          "url" : "https://i.scdn.co/image/f15208f359ccd16d4dbc9b998dd0a4e688a2c470",
          "width" : 64
        } ],
        "name" : "A Certain Distance",
        "type" : "album",
        "uri" : "spotify:album:4Z1zhNhmbQ9G1V7Lsrz3Gt"
      },
      "artists" : [ {
        "external_urls" : {
          "spotify" : "https://open.spotify.com/artist/2fMe9lZs5HGGOwh8cMSIub"
        },
        "href" : "https://api.spotify.com/v1/artists/2fMe9lZs5HGGOwh8cMSIub",
        "id" : "2fMe9lZs5HGGOwh8cMSIub",
        "name" : "Lusine",
        "type" : "artist",
        "uri" : "spotify:artist:2fMe9lZs5HGGOwh8cMSIub"
      } ],
      "available_markets" : [ ],
      "disc_number" : 1,
      "duration_ms" : 278413,
      "explicit" : false,
      "external_ids" : {
        "isrc" : "US2J70908702"
      },
      "external_urls" : {
        "spotify" : "https://open.spotify.com/track/2GwA3JXeXVAHXqcylyvGwZ"
      },
      "href" : "https://api.spotify.com/v1/tracks/2GwA3JXeXVAHXqcylyvGwZ",
      "id" : "2GwA3JXeXVAHXqcylyvGwZ",
      "name" : "Two Dots",
      "popularity" : 1,
      "preview_url" : null,
      "track_number" : 2,
      "type" : "track",
      "uri" : "spotify:track:2GwA3JXeXVAHXqcylyvGwZ"
    }
  }, {
    "added_at" : "2010-05-08T10:53:29Z",
    "added_by" : null,
    "track" : {
      "album" : {
        "album_type" : "album",
        "available_markets" : [ "AD", "AR", "AT", "AU", "BE", "BG", "BO", "BR", "CA", "CH", "CL", "CO", "CR", "CY", "CZ", "DE", "DK", "DO", "EC", "EE", "ES", "FI", "FR", "GB", "GR", "GT", "HK", "HN", "HU", "IE", "IS", "IT", "LI", "LT", "LU", "LV", "MC", "MT", "MX", "MY", "NI", "NL", "NO", "NZ", "PA", "PE", "PH", "PL", "PT", "PY", "RO", "SE", "SG", "SI", "SK", "SV", "TR", "TW", "UY" ],
        "external_urls" : {
          "spotify" : "https://open.spotify.com/album/16ge2fHioJPxCXThFc56zN"
        },
        "href" : "https://api.spotify.com/v1/albums/16ge2fHioJPxCXThFc56zN",
        "id" : "16ge2fHioJPxCXThFc56zN",
        "images" : [ {
          "height" : 640,
          "url" : "https://i.scdn.co/image/105c5e21578d01dc6ca71ed56a0f2196e2304563",
          "width" : 640
        }, {
          "height" : 300,
          "url" : "https://i.scdn.co/image/ba32df1ac39031a605596ba418db2f1de8dddef5",
          "width" : 300
        }, {
          "height" : 64,
          "url" : "https://i.scdn.co/image/37f48988978b8f0763f95c018941cde26e16e87e",
          "width" : 64
        } ],
        "name" : "LP3",
        "type" : "album",
        "uri" : "spotify:album:16ge2fHioJPxCXThFc56zN"
      },
      "artists" : [ {
        "external_urls" : {
          "spotify" : "https://open.spotify.com/artist/57dN52uHvrHOxijzpIgu3E"
        },
        "href" : "https://api.spotify.com/v1/artists/57dN52uHvrHOxijzpIgu3E",
        "id" : "57dN52uHvrHOxijzpIgu3E",
        "name" : "Ratatat",
        "type" : "artist",
        "uri" : "spotify:artist:57dN52uHvrHOxijzpIgu3E"
      } ],
      "available_markets" : [ "AD", "AR", "AT", "AU", "BE", "BG", "BO", "BR", "CA", "CH", "CL", "CO", "CR", "CY", "CZ", "DE", "DK", "DO", "EC", "EE", "ES", "FI", "FR", "GB", "GR", "GT", "HK", "HN", "HU", "IE", "IS", "IT", "LI", "LT", "LU", "LV", "MC", "MT", "MX", "MY", "NI", "NL", "NO", "NZ", "PA", "PE", "PH", "PL", "PT", "PY", "RO", "SE", "SG", "SI", "SK", "SV", "TR", "TW", "UY" ],
      "disc_number" : 1,
      "duration_ms" : 232146,
      "explicit" : false,
      "external_ids" : {
        "isrc" : "GBBKS0800253"
      },
      "external_urls" : {
        "spotify" : "https://open.spotify.com/track/0tiN8byYGw5tv6yBTNKIcb"
      },
      "href" : "https://api.spotify.com/v1/tracks/0tiN8byYGw5tv6yBTNKIcb",
      "id" : "0tiN8byYGw5tv6yBTNKIcb",
      "name" : "Mirando",
      "popularity" : 40,
      "preview_url" : "https://p.scdn.co/mp3-preview/216bba0d8c32626cee4339154f7ac6ac704025cf",
      "track_number" : 4,
      "type" : "track",
      "uri" : "spotify:track:0tiN8byYGw5tv6yBTNKIcb"
    }
  }, {
    "added_at" : "2010-05-08T10:53:29Z",
    "added_by" : null,
    "track" : {
      "album" : {
        "album_type" : "album",
        "available_markets" : [ "AD", "AR", "BE", "BG", "BO", "BR", "CH", "CL", "CO", "CR", "CY", "CZ", "DK", "DO", "EC", "EE", "ES", "FI", "FR", "GR", "GT", "HK", "HN", "HU", "IE", "IS", "IT", "LI", "LT", "LU", "LV", "MC", "MT", "MX", "MY", "NI", "NL", "NO", "PA", "PE", "PH", "PL", "PT", "PY", "RO", "SE", "SG", "SI", "SK", "SV", "TR", "TW", "UY" ],
        "external_urls" : {
          "spotify" : "https://open.spotify.com/album/6OfYVC4m7EmGIxaKOgaoZs"
        },
        "href" : "https://api.spotify.com/v1/albums/6OfYVC4m7EmGIxaKOgaoZs",
        "id" : "6OfYVC4m7EmGIxaKOgaoZs",
        "images" : [ {
          "height" : 640,
          "url" : "https://i.scdn.co/image/da5da19daca8cab7845d2b682eca7508e4864d9b",
          "width" : 640
        }, {
          "height" : 300,
          "url" : "https://i.scdn.co/image/3702be89b231f44dc344df6a518799573bd14641",
          "width" : 300
        }, {
          "height" : 64,
          "url" : "https://i.scdn.co/image/6cf859ef3857894e17efa974e253c1c83aa10f44",
          "width" : 64
        } ],
        "name" : "Miike Snow",
        "type" : "album",
        "uri" : "spotify:album:6OfYVC4m7EmGIxaKOgaoZs"
      },
      "artists" : [ {
        "external_urls" : {
          "spotify" : "https://open.spotify.com/artist/4l1cKWYW591xnwEGxpUg3J"
        },
        "href" : "https://api.spotify.com/v1/artists/4l1cKWYW591xnwEGxpUg3J",
        "id" : "4l1cKWYW591xnwEGxpUg3J",
        "name" : "Miike Snow",
        "type" : "artist",
        "uri" : "spotify:artist:4l1cKWYW591xnwEGxpUg3J"
      } ],
      "available_markets" : [ "AD", "AR", "BE", "BG", "BO", "BR", "CH", "CL", "CO", "CR", "CY", "CZ", "DK", "DO", "EC", "EE", "ES", "FI", "FR", "GR", "GT", "HK", "HN", "HU", "IE", "IS", "IT", "LI", "LT", "LU", "LV", "MC", "MT", "MX", "MY", "NI", "NL", "NO", "PA", "PE", "PH", "PL", "PT", "PY", "RO", "SE", "SG", "SI", "SK", "SV", "TR", "TW", "UY" ],
      "disc_number" : 1,
      "duration_ms" : 261146,
      "explicit" : false,
      "external_ids" : {
        "isrc" : "GBARL0900400"
      },
      "external_urls" : {
        "spotify" : "https://open.spotify.com/track/605eTsPaFwXHSBeMFp2p4G"
      },
      "href" : "https://api.spotify.com/v1/tracks/605eTsPaFwXHSBeMFp2p4G",
      "id" : "605eTsPaFwXHSBeMFp2p4G",
      "name" : "Burial",
      "popularity" : 32,
      "preview_url" : "https://p.scdn.co/mp3-preview/b38e112e8767a74185ae8df4b09c5287e74b69d0",
      "track_number" : 2,
      "type" : "track",
      "uri" : "spotify:track:605eTsPaFwXHSBeMFp2p4G"
    }
  }, {
    "added_at" : "2010-05-08T10:53:29Z",
    "added_by" : null,
    "track" : {
      "album" : {
        "album_type" : "album",
        "available_markets" : [ "AD", "AR", "AT", "AU", "BE", "BG", "BO", "BR", "CA", "CH", "CL", "CO", "CR", "CY", "CZ", "DE", "DK", "DO", "EC", "EE", "ES", "FI", "FR", "GB", "GR", "GT", "HK", "HN", "HU", "IE", "IS", "IT", "LI", "LT", "LU", "LV", "MC", "MT", "MX", "MY", "NI", "NL", "NO", "NZ", "PA", "PE", "PH", "PL", "PT", "PY", "RO", "SE", "SG", "SI", "SK", "SV", "TR", "TW", "US", "UY" ],
        "external_urls" : {
          "spotify" : "https://open.spotify.com/album/6XvQS01Q0O7Lnda24pxFq3"
        },
        "href" : "https://api.spotify.com/v1/albums/6XvQS01Q0O7Lnda24pxFq3",
        "id" : "6XvQS01Q0O7Lnda24pxFq3",
        "images" : [ {
          "height" : 600,
          "url" : "https://i.scdn.co/image/89bef526419ac75057f8bfd2ea36fc52efd97bd8",
          "width" : 600
        }, {
          "height" : 300,
          "url" : "https://i.scdn.co/image/963137e0e98d615e3874d97a5c20e3c078725d0c",
          "width" : 300
        }, {
          "height" : 64,
          "url" : "https://i.scdn.co/image/8bb66c65845481cb6bbebbb168f9f78c7a19656d",
          "width" : 64
        } ],
        "name" : "On My Way Back Home",
        "type" : "album",
        "uri" : "spotify:album:6XvQS01Q0O7Lnda24pxFq3"
      },
      "artists" : [ {
        "external_urls" : {
          "spotify" : "https://open.spotify.com/artist/2C1JlHURhWEkue0su3OwGu"
        },
        "href" : "https://api.spotify.com/v1/artists/2C1JlHURhWEkue0su3OwGu",
        "id" : "2C1JlHURhWEkue0su3OwGu",
        "name" : "Daisuke Abe",
        "type" : "artist",
        "uri" : "spotify:artist:2C1JlHURhWEkue0su3OwGu"
      } ],
      "available_markets" : [ "AD", "AR", "AT", "AU", "BE", "BG", "BO", "BR", "CA", "CH", "CL", "CO", "CR", "CY", "CZ", "DE", "DK", "DO", "EC", "EE", "ES", "FI", "FR", "GB", "GR", "GT", "HK", "HN", "HU", "IE", "IS", "IT", "LI", "LT", "LU", "LV", "MC", "MT", "MX", "MY", "NI", "NL", "NO", "NZ", "PA", "PE", "PH", "PL", "PT", "PY", "RO", "SE", "SG", "SI", "SK", "SV", "TR", "TW", "US", "UY" ],
      "disc_number" : 1,
      "duration_ms" : 303386,
      "explicit" : false,
      "external_ids" : {
        "isrc" : "DES200526101"
      },
      "external_urls" : {
        "spotify" : "https://open.spotify.com/track/7z4aM2hah4EhvvXUCkZ38G"
      },
      "href" : "https://api.spotify.com/v1/tracks/7z4aM2hah4EhvvXUCkZ38G",
      "id" : "7z4aM2hah4EhvvXUCkZ38G",
      "name" : "On My Way Back Home",
      "popularity" : 5,
      "preview_url" : "https://p.scdn.co/mp3-preview/08b723ccb5b02dca50cff96ef7f8fd412340901b",
      "track_number" : 1,
      "type" : "track",
      "uri" : "spotify:track:7z4aM2hah4EhvvXUCkZ38G"
    }
  }, {
    "added_at" : "2010-05-08T10:53:29Z",
    "added_by" : null,
    "track" : {
      "album" : {
        "album_type" : "album",
        "available_markets" : [ "AD", "AR", "AT", "AU", "BE", "BG", "BO", "BR", "CA", "CH", "CL", "CO", "CR", "CY", "CZ", "DE", "DK", "DO", "EC", "EE", "ES", "FI", "FR", "GB", "GR", "GT", "HK", "HN", "HU", "IE", "IS", "IT", "LI", "LT", "LU", "LV", "MC", "MT", "MX", "MY", "NI", "NL", "NO", "NZ", "PA", "PE", "PH", "PL", "PT", "PY", "RO", "SE", "SG", "SI", "SK", "SV", "TR", "TW", "US", "UY" ],
        "external_urls" : {
          "spotify" : "https://open.spotify.com/album/3xfueIrMUw57owAiYVKt8S"
        },
        "href" : "https://api.spotify.com/v1/albums/3xfueIrMUw57owAiYVKt8S",
        "id" : "3xfueIrMUw57owAiYVKt8S",
        "images" : [ {
          "height" : 600,
          "url" : "https://i.scdn.co/image/72fd86cdb4348a6f87193fb53e127a92e1f6419a",
          "width" : 600
        }, {
          "height" : 300,
          "url" : "https://i.scdn.co/image/ce78388e92f47f9c6b52d45f7ae57b48cb8bd843",
          "width" : 300
        }, {
          "height" : 64,
          "url" : "https://i.scdn.co/image/d3ec95e63fcb754afe804ad0f31c15672522ef88",
          "width" : 64
        } ],
        "name" : "Invisible Cinema",
        "type" : "album",
        "uri" : "spotify:album:3xfueIrMUw57owAiYVKt8S"
      },
      "artists" : [ {
        "external_urls" : {
          "spotify" : "https://open.spotify.com/artist/22KzEvCtrTGf9l6k7zFcdv"
        },
        "href" : "https://api.spotify.com/v1/artists/22KzEvCtrTGf9l6k7zFcdv",
        "id" : "22KzEvCtrTGf9l6k7zFcdv",
        "name" : "Aaron Parks",
        "type" : "artist",
        "uri" : "spotify:artist:22KzEvCtrTGf9l6k7zFcdv"
      } ],
      "available_markets" : [ "AD", "AR", "AT", "AU", "BE", "BG", "BO", "BR", "CA", "CH", "CL", "CO", "CR", "CY", "CZ", "DE", "DK", "DO", "EC", "EE", "ES", "FI", "FR", "GB", "GR", "GT", "HK", "HN", "HU", "IE", "IS", "IT", "LI", "LT", "LU", "LV", "MC", "MT", "MX", "MY", "NI", "NL", "NO", "NZ", "PA", "PE", "PH", "PL", "PT", "PY", "RO", "SE", "SG", "SI", "SK", "SV", "TR", "TW", "US", "UY" ],
      "disc_number" : 1,
      "duration_ms" : 374613,
      "explicit" : false,
      "external_ids" : {
        "isrc" : "USBN20800377"
      },
      "external_urls" : {
        "spotify" : "https://open.spotify.com/track/3pHi49H2DjfnpqX6iOaLC8"
      },
      "href" : "https://api.spotify.com/v1/tracks/3pHi49H2DjfnpqX6iOaLC8",
      "id" : "3pHi49H2DjfnpqX6iOaLC8",
      "name" : "Nemesis",
      "popularity" : 35,
      "preview_url" : "https://p.scdn.co/mp3-preview/e2d761a5deea3ab6a24b673fd6b5b7631a9c21f6",
      "track_number" : 3,
      "type" : "track",
      "uri" : "spotify:track:3pHi49H2DjfnpqX6iOaLC8"
    }
  }, {
    "added_at" : "2010-05-08T10:53:29Z",
    "added_by" : null,
    "track" : {
      "album" : {
        "album_type" : "album",
        "available_markets" : [ "AD", "AR", "AT", "AU", "BE", "BG", "BO", "BR", "CA", "CH", "CL", "CO", "CR", "CY", "CZ", "DE", "DK", "DO", "EC", "EE", "ES", "FI", "FR", "GB", "GR", "GT", "HK", "HN", "HU", "IE", "IS", "IT", "LI", "LT", "LU", "LV", "MC", "MT", "MX", "MY", "NI", "NL", "NO", "NZ", "PA", "PE", "PH", "PL", "PT", "PY", "RO", "SE", "SG", "SI", "SK", "SV", "TR", "TW", "US", "UY" ],
        "external_urls" : {
          "spotify" : "https://open.spotify.com/album/4sb0eMpDn3upAFfyi4q2rw"
        },
        "href" : "https://api.spotify.com/v1/albums/4sb0eMpDn3upAFfyi4q2rw",
        "id" : "4sb0eMpDn3upAFfyi4q2rw",
        "images" : [ {
          "height" : 640,
          "url" : "https://i.scdn.co/image/d3a5855bc9c50767090e4e29f2d207061114888d",
          "width" : 640
        }, {
          "height" : 300,
          "url" : "https://i.scdn.co/image/d6f99fe6af542c3c59baa8c24419a90bc3dfe27e",
          "width" : 300
        }, {
          "height" : 64,
          "url" : "https://i.scdn.co/image/50af590474f0a763178eb552e2ea4efb2e55f525",
          "width" : 64
        } ],
        "name" : "Kind Of Blue (Legacy Edition)",
        "type" : "album",
        "uri" : "spotify:album:4sb0eMpDn3upAFfyi4q2rw"
      },
      "artists" : [ {
        "external_urls" : {
          "spotify" : "https://open.spotify.com/artist/0kbYTNQb4Pb1rPbbaF0pT4"
        },
        "href" : "https://api.spotify.com/v1/artists/0kbYTNQb4Pb1rPbbaF0pT4",
        "id" : "0kbYTNQb4Pb1rPbbaF0pT4",
        "name" : "Miles Davis",
        "type" : "artist",
        "uri" : "spotify:artist:0kbYTNQb4Pb1rPbbaF0pT4"
      } ],
      "available_markets" : [ "AD", "AR", "AT", "AU", "BE", "BG", "BO", "BR", "CA", "CH", "CL", "CO", "CR", "CY", "CZ", "DE", "DK", "DO", "EC", "EE", "ES", "FI", "FR", "GB", "GR", "GT", "HK", "HN", "HU", "IE", "IS", "IT", "LI", "LT", "LU", "LV", "MC", "MT", "MX", "MY", "NI", "NL", "NO", "NZ", "PA", "PE", "PH", "PL", "PT", "PY", "RO", "SE", "SG", "SI", "SK", "SV", "TR", "TW", "US", "UY" ],
      "disc_number" : 1,
      "duration_ms" : 337733,
      "explicit" : false,
      "external_ids" : {
        "isrc" : "USSM15900115"
      },
      "external_urls" : {
        "spotify" : "https://open.spotify.com/track/0aWMVrwxPNYkKmFthzmpRi"
      },
      "href" : "https://api.spotify.com/v1/tracks/0aWMVrwxPNYkKmFthzmpRi",
      "id" : "0aWMVrwxPNYkKmFthzmpRi",
      "name" : "Blue in Green",
      "popularity" : 66,
      "preview_url" : "https://p.scdn.co/mp3-preview/48c806844bbfe537c3d888e35e0b9e4c5677f202",
      "track_number" : 3,
      "type" : "track",
      "uri" : "spotify:track:0aWMVrwxPNYkKmFthzmpRi"
    }
  }, {
    "added_at" : "2010-05-08T10:53:29Z",
    "added_by" : null,
    "track" : {
      "album" : {
        "album_type" : "single",
        "available_markets" : [ ],
        "external_urls" : {
          "spotify" : "https://open.spotify.com/album/5xHBxaiCrGym9iT1RBtCPw"
        },
        "href" : "https://api.spotify.com/v1/albums/5xHBxaiCrGym9iT1RBtCPw",
        "id" : "5xHBxaiCrGym9iT1RBtCPw",
        "images" : [ {
          "height" : 639,
          "url" : "https://i.scdn.co/image/821ff8418b26db99d134bf116c7e4969da424af1",
          "width" : 640
        }, {
          "height" : 300,
          "url" : "https://i.scdn.co/image/80592f25790d651f8256f08a46f986257f13dc83",
          "width" : 300
        }, {
          "height" : 64,
          "url" : "https://i.scdn.co/image/dacae9a76735bdcea67b6eb0bb44a11146f68c1c",
          "width" : 64
        } ],
        "name" : "Sha! Shtil! / The Boogieman - EP",
        "type" : "album",
        "uri" : "spotify:album:5xHBxaiCrGym9iT1RBtCPw"
      },
      "artists" : [ {
        "external_urls" : {
          "spotify" : "https://open.spotify.com/artist/1dHQ5cLB55UQnSM4L6gUiH"
        },
        "href" : "https://api.spotify.com/v1/artists/1dHQ5cLB55UQnSM4L6gUiH",
        "id" : "1dHQ5cLB55UQnSM4L6gUiH",
        "name" : "G.Vump",
        "type" : "artist",
        "uri" : "spotify:artist:1dHQ5cLB55UQnSM4L6gUiH"
      } ],
      "available_markets" : [ ],
      "disc_number" : 1,
      "duration_ms" : 424175,
      "explicit" : false,
      "external_ids" : {
        "isrc" : "FRU910900049"
      },
      "external_urls" : {
        "spotify" : "https://open.spotify.com/track/4w8rExdXnJe29flEGC46oa"
      },
      "href" : "https://api.spotify.com/v1/tracks/4w8rExdXnJe29flEGC46oa",
      "id" : "4w8rExdXnJe29flEGC46oa",
      "name" : "Sha! Shtil! (L-Vis 1990 Remix)",
      "popularity" : 0,
      "preview_url" : null,
      "track_number" : 4,
      "type" : "track",
      "uri" : "spotify:track:4w8rExdXnJe29flEGC46oa"
    }
  }, {
    "added_at" : "2010-05-08T10:53:29Z",
    "added_by" : null,
    "track" : {
      "album" : {
        "album_type" : "album",
        "available_markets" : [ "AD", "AR", "AT", "AU", "BE", "BG", "BO", "BR", "CH", "CL", "CO", "CR", "CY", "CZ", "DE", "DK", "DO", "EC", "EE", "ES", "FI", "FR", "GB", "GT", "HK", "HN", "HU", "IE", "IS", "IT", "LI", "LT", "LV", "MC", "MT", "MY", "NI", "NL", "NO", "PA", "PE", "PH", "PL", "PT", "PY", "RO", "SE", "SG", "SI", "SK", "SV", "TR", "TW" ],
        "external_urls" : {
          "spotify" : "https://open.spotify.com/album/7KlmgeyRd5tZWrkwqJQEfd"
        },
        "href" : "https://api.spotify.com/v1/albums/7KlmgeyRd5tZWrkwqJQEfd",
        "id" : "7KlmgeyRd5tZWrkwqJQEfd",
        "images" : [ {
          "height" : 640,
          "url" : "https://i.scdn.co/image/d4a7ee6203543585ad1b76af6c067d88baf6fae8",
          "width" : 640
        }, {
          "height" : 300,
          "url" : "https://i.scdn.co/image/f6c215cfc561a8bdaa5cfa8acca0b146ceb36cfa",
          "width" : 300
        }, {
          "height" : 64,
          "url" : "https://i.scdn.co/image/259c931eef280714e7e54e981418729b92ff5699",
          "width" : 64
        } ],
        "name" : "The Pursuit",
        "type" : "album",
        "uri" : "spotify:album:7KlmgeyRd5tZWrkwqJQEfd"
      },
      "artists" : [ {
        "external_urls" : {
          "spotify" : "https://open.spotify.com/artist/3XxxEq6BREC57nCWXbQZ7o"
        },
        "href" : "https://api.spotify.com/v1/artists/3XxxEq6BREC57nCWXbQZ7o",
        "id" : "3XxxEq6BREC57nCWXbQZ7o",
        "name" : "Jamie Cullum",
        "type" : "artist",
        "uri" : "spotify:artist:3XxxEq6BREC57nCWXbQZ7o"
      } ],
      "available_markets" : [ "AD", "AR", "AT", "AU", "BE", "BG", "BO", "BR", "CH", "CL", "CO", "CR", "CY", "CZ", "DE", "DK", "DO", "EC", "EE", "ES", "FI", "FR", "GB", "GT", "HK", "HN", "HU", "IE", "IS", "IT", "LI", "LT", "LV", "MC", "MT", "MY", "NI", "NL", "NO", "PA", "PE", "PH", "PL", "PT", "PY", "RO", "SE", "SG", "SI", "SK", "SV", "TR", "TW" ],
      "disc_number" : 1,
      "duration_ms" : 288706,
      "explicit" : false,
      "external_ids" : {
        "isrc" : "GBUM70907757"
      },
      "external_urls" : {
        "spotify" : "https://open.spotify.com/track/7LR87BxVS5GawUHQFJdko5"
      },
      "href" : "https://api.spotify.com/v1/tracks/7LR87BxVS5GawUHQFJdko5",
      "id" : "7LR87BxVS5GawUHQFJdko5",
      "name" : "Don't Stop The Music",
      "popularity" : 57,
      "preview_url" : "https://p.scdn.co/mp3-preview/c5d49d7137f687818c2489b932181c3cf7dbaa1a",
      "track_number" : 6,
      "type" : "track",
      "uri" : "spotify:track:7LR87BxVS5GawUHQFJdko5"
    }
  }, {
    "added_at" : "2010-05-08T10:53:29Z",
    "added_by" : null,
    "track" : {
      "album" : {
        "album_type" : "album",
        "available_markets" : [ "DK", "NO", "SE" ],
        "external_urls" : {
          "spotify" : "https://open.spotify.com/album/0J0rFQDKn8v8EfAoRJ9Ojs"
        },
        "href" : "https://api.spotify.com/v1/albums/0J0rFQDKn8v8EfAoRJ9Ojs",
        "id" : "0J0rFQDKn8v8EfAoRJ9Ojs",
        "images" : [ {
          "height" : 635,
          "url" : "https://i.scdn.co/image/872adfa18737606e0868c558aff7cf62b4b26f82",
          "width" : 640
        }, {
          "height" : 297,
          "url" : "https://i.scdn.co/image/4b9cd0fa1653091832108f3ec95a4777522b4d86",
          "width" : 300
        }, {
          "height" : 63,
          "url" : "https://i.scdn.co/image/b31dfe18882c93b465bb24cd84bbc08afd7f31ef",
          "width" : 64
        } ],
        "name" : "JJ N° 2",
        "type" : "album",
        "uri" : "spotify:album:0J0rFQDKn8v8EfAoRJ9Ojs"
      },
      "artists" : [ {
        "external_urls" : {
          "spotify" : "https://open.spotify.com/artist/1bAdBYcsDdsbqmWbAE7qKR"
        },
        "href" : "https://api.spotify.com/v1/artists/1bAdBYcsDdsbqmWbAE7qKR",
        "id" : "1bAdBYcsDdsbqmWbAE7qKR",
        "name" : "JJ",
        "type" : "artist",
        "uri" : "spotify:artist:1bAdBYcsDdsbqmWbAE7qKR"
      } ],
      "available_markets" : [ "DK", "NO", "SE" ],
      "disc_number" : 1,
      "duration_ms" : 213226,
      "explicit" : false,
      "external_ids" : {
        "isrc" : "SEXCH0901103"
      },
      "external_urls" : {
        "spotify" : "https://open.spotify.com/track/0IGjl5JC31i3c313B4fkaj"
      },
      "href" : "https://api.spotify.com/v1/tracks/0IGjl5JC31i3c313B4fkaj",
      "id" : "0IGjl5JC31i3c313B4fkaj",
      "name" : "Ecstacy",
      "popularity" : 38,
      "preview_url" : "https://p.scdn.co/mp3-preview/d4fb8379ed7ff8565e8fa7074da9d086bea2b4a0",
      "track_number" : 3,
      "type" : "track",
      "uri" : "spotify:track:0IGjl5JC31i3c313B4fkaj"
    }
  }, {
    "added_at" : "2010-05-08T10:53:29Z",
    "added_by" : null,
    "track" : {
      "album" : {
        "album_type" : "album",
        "available_markets" : [ "AD", "AR", "AT", "AU", "BE", "BG", "BO", "BR", "CH", "CL", "CO", "CR", "CY", "CZ", "DK", "DO", "EC", "EE", "ES", "FI", "FR", "GB", "GR", "GT", "HK", "HN", "HU", "IE", "IS", "IT", "LI", "LT", "LU", "LV", "MC", "MT", "MY", "NI", "NL", "NO", "NZ", "PA", "PE", "PH", "PL", "PT", "PY", "RO", "SE", "SG", "SI", "SK", "SV", "TR", "TW", "UY" ],
        "external_urls" : {
          "spotify" : "https://open.spotify.com/album/5uBSuPB7ZgHB1mLtFzO39B"
        },
        "href" : "https://api.spotify.com/v1/albums/5uBSuPB7ZgHB1mLtFzO39B",
        "id" : "5uBSuPB7ZgHB1mLtFzO39B",
        "images" : [ {
          "height" : 634,
          "url" : "https://i.scdn.co/image/141b33878042b88640e9093c453981c191a3dfe0",
          "width" : 640
        }, {
          "height" : 297,
          "url" : "https://i.scdn.co/image/00a68dfef10f2dac4c1ef69e9306c5b13f7c80c9",
          "width" : 300
        }, {
          "height" : 63,
          "url" : "https://i.scdn.co/image/8194673349c4706a9473ce589408fb60b55dec79",
          "width" : 64
        } ],
        "name" : "Twentysomething",
        "type" : "album",
        "uri" : "spotify:album:5uBSuPB7ZgHB1mLtFzO39B"
      },
      "artists" : [ {
        "external_urls" : {
          "spotify" : "https://open.spotify.com/artist/3XxxEq6BREC57nCWXbQZ7o"
        },
        "href" : "https://api.spotify.com/v1/artists/3XxxEq6BREC57nCWXbQZ7o",
        "id" : "3XxxEq6BREC57nCWXbQZ7o",
        "name" : "Jamie Cullum",
        "type" : "artist",
        "uri" : "spotify:artist:3XxxEq6BREC57nCWXbQZ7o"
      } ],
      "available_markets" : [ "AD", "AR", "AT", "AU", "BE", "BG", "BO", "BR", "CH", "CL", "CO", "CR", "CY", "CZ", "DK", "DO", "EC", "EE", "ES", "FI", "FR", "GB", "GR", "GT", "HK", "HN", "HU", "IE", "IS", "IT", "LI", "LT", "LU", "LV", "MC", "MT", "MY", "NI", "NL", "NO", "NZ", "PA", "PE", "PH", "PL", "PT", "PY", "RO", "SE", "SG", "SI", "SK", "SV", "TR", "TW", "UY" ],
      "disc_number" : 1,
      "duration_ms" : 334560,
      "explicit" : false,
      "external_ids" : {
        "isrc" : "GBEKZ0400376"
      },
      "external_urls" : {
        "spotify" : "https://open.spotify.com/track/7e6wJccCWWYs8nrGCP5UUt"
      },
      "href" : "https://api.spotify.com/v1/tracks/7e6wJccCWWYs8nrGCP5UUt",
      "id" : "7e6wJccCWWYs8nrGCP5UUt",
      "name" : "High And Dry - Live On The South Bank Show / 2014",
      "popularity" : 34,
      "preview_url" : "https://p.scdn.co/mp3-preview/c1ff8d45dd2f28abecd77a3e52e937d530384ef8",
      "track_number" : 18,
      "type" : "track",
      "uri" : "spotify:track:7e6wJccCWWYs8nrGCP5UUt"
    }
  } ],
  "limit" : 10,
  "next" : "https://api.spotify.com/v1/users/sregg/starred/tracks?offset=10&limit=10",
  "offset" : 0,
  "previous" : null,
  "total" : 704
}