{
  "message" : "Kaffe + musik = bra start på dagen!",
  "playlists" : {
    "href" : "https://api.spotify.com/v1/browse/featured-playlists?country=SE&locale=sv_SE&timestamp=2014-12-09T10:13:16&offset=0&limit=5",
    "items" : [ {
      "collaborative" : false,
      "external_urls" : {
        "spotify" : "http://open.spotify.com/user/spotify/playlist/4BKT5olNFqLB1FAa8OtC8k"
      },
      "href" : "https://api.spotify.com/v1/users/spotify/playlists/4BKT5olNFqLB1FAa8OtC8k",
      "id" : "4BKT5olNFqLB1FAa8OtC8k",
      "images" : [ {
        "url" : "https://i.scdn.co/image/248213a045c2f086f427692085827fb1feb70645"
      } ],
      "name" : "Your Favorite Coffeehouse",
      "owner" : {
        "external_urls" : {
          "spotify" : "http://open.spotify.com/user/spotify"
        },
        "href" : "https://api.spotify.com/v1/users/spotify",
        "id" : "spotify",
        "type" : "user",
        "uri" : "spotify:user:spotify"
      },
      "public" : null,
      "tracks" : {
        "href" : "https://api.spotify.com/v1/users/spotify/playlists/4BKT5olNFqLB1FAa8OtC8k/tracks",
        "total" : 82
      },
      "type" : "playlist",
      "uri" : "spotify:user:spotify:playlist:4BKT5olNFqLB1FAa8OtC8k"
    }, {
      "collaborative" : false,
      "external_urls" : {
        "spotify" : "http://open.spotify.com/user/spotify/playlist/2ujjMpFriZ2nayLmrD1Jgl"
      },
      "href" : "https://api.spotify.com/v1/users/spotify/playlists/2ujjMpFriZ2nayLmrD1Jgl",
      "id" : "2ujjMpFriZ2nayLmrD1Jgl",
      "images" : [ {
        "url" : "https://i.scdn.co/image/c6ae992ff7b6b9e49bea3b76e3d739ef2f1b1fb2"
      } ],
      "name" : "Deep Focus",
      "owner" : {
        "external_urls" : {
          "spotify" : "http://open.spotify.com/user/spotify"
        },
        "href" : "https://api.spotify.com/v1/users/spotify",
        "id" : "spotify",
        "type" : "user",
        "uri" : "spotify:user:spotify"
      },
      "public" : null,
      "tracks" : {
        "href" : "https://api.spotify.com/v1/users/spotify/playlists/2ujjMpFriZ2nayLmrD1Jgl/tracks",
        "total" : 98
      },
      "type" : "playlist",
      "uri" : "spotify:user:spotify:playlist:2ujjMpFriZ2nayLmrD1Jgl"
    }, {
      "collaborative" : false,
      "external_urls" : {
        "spotify" : "http://open.spotify.com/user/spotify/playlist/5UFRIQ89nVPcVsrWjLyjqI"
      },
      "href" : "https://api.spotify.com/v1/users/spotify/playlists/5UFRIQ89nVPcVsrWjLyjqI",
      "id" : "5UFRIQ89nVPcVsrWjLyjqI",
      "images" : [ {
        "url" : "https://i.scdn.co/image/9c320a0e9f484ac3668678ae9ee1338fd31e1a7b"
      } ],
      "name" : "Caffeine Rush",
      "owner" : {
        "external_urls" : {
          "spotify" : "http://open.spotify.com/user/spotify"
        },
        "href" : "https://api.spotify.com/v1/users/spotify",
        "id" : "spotify",
        "type" : "user",
        "uri" : "spotify:user:spotify"
      },
      "public" : null,
      "tracks" : {
        "href" : "https://api.spotify.com/v1/users/spotify/playlists/5UFRIQ89nVPcVsrWjLyjqI/tracks",
        "total" : 71
      },
      "type" : "playlist",
      "uri" : "spotify:user:spotify:playlist:5UFRIQ89nVPcVsrWjLyjqI"
    }, {
      "collaborative" : false,
      "external_urls" : {
        "spotify" : "http://open.spotify.com/user/spotify/playlist/1vfys0yYhZEyJ9yvnULyM2"
      },
      "href" : "https://api.spotify.com/v1/users/spotify/playlists/1vfys0yYhZEyJ9yvnULyM2",
      "id" : "1vfys0yYhZEyJ9yvnULyM2",
      "images" : [ {
        "url" : "https://i.scdn.co/image/e6682806ad03d3c2efb729da17ffe4c0bb825d02"
      } ],
      "name" : "Psyched!",
      "owner" : {
        "external_urls" : {
          "spotify" : "http://open.spotify.com/user/spotify"
        },
        "href" : "https://api.spotify.com/v1/users/spotify",
        "id" : "spotify",
        "type" : "user",
        "uri" : "spotify:user:spotify"
      },
      "public" : null,
      "tracks" : {
        "href" : "https://api.spotify.com/v1/users/spotify/playlists/1vfys0yYhZEyJ9yvnULyM2/tracks",
        "total" : 52
      },
      "type" : "playlist",
      "uri" : "spotify:user:spotify:playlist:1vfys0yYhZEyJ9yvnULyM2"
    }, {
      "collaborative" : false,
      "external_urls" : {
        "spotify" : "http://open.spotify.com/user/spotify/playlist/74lsbDpc3vMNHHwD0w07ke"
      },
      "href" : "https://api.spotify.com/v1/users/spotify/playlists/74lsbDpc3vMNHHwD0w07ke",
      "id" : "74lsbDpc3vMNHHwD0w07ke",
      "images" : [ {
        "url" : "https://i.scdn.co/image/6684e0debbbe7ca94d7eb96c1a186d7bbb2d366e"
      } ],
      "name" : "Country Coffeehouse",
      "owner" : {
        "external_urls" : {
          "spotify" : "http://open.spotify.com/user/spotify"
        },
        "href" : "https://api.spotify.com/v1/users/spotify",
        "id" : "spotify",
        "type" : "user",
        "uri" : "spotify:user:spotify"
      },
      "public" : null,
      "tracks" : {
        "href" : "https://api.spotify.com/v1/users/spotify/playlists/74lsbDpc3vMNHHwD0w07ke/tracks",
        "total" : 32
      },
      "type" : "playlist",
      "uri" : "spotify:user:spotify:playlist:74lsbDpc3vMNHHwD0w07ke"
    } ],
    "limit" : 5,
    "next" : "https://api.spotify.com/v1/browse/featured-playlists?country=SE&locale=sv_SE&timestamp=2014-12-09T10:13:16&offset=5&limit=5",
    "offset" : 0,
    "previous" : null,
    "total" : 12
  }
}
