{
  "categories" : {
    "href" : "https://api.spotify.com/v1/browse/categories?country=SE&locale=sv_SE&offset=1&limit=2",
    "items" : [ {
      "href" : "https://api.spotify.com/v1/browse/categories/mood",
      "icons" : [ {
        "height" : 274,
        "url" : "https://datsnxq1rwndn.cloudfront.net/media/original/mood-274x274_976986a31ac8c49794cbdc7246fd5ad7_274x274.jpg",
        "width" : 274
      } ],
      "id" : "mood",
      "name" : "Humör"
    }, {
      "href" : "https://api.spotify.com/v1/browse/categories/party",
      "icons" : [ {
        "height" : 274,
        "url" : "https://datsnxq1rwndn.cloudfront.net/media/derived/party-274x274_73d1907a7371c3bb96a288390a96ee27_0_0_274_274.jpg",
        "width" : 274
      } ],
      "id" : "party",
      "name" : "Party"
    } ],
    "limit" : 2,
    "next" : "https://api.spotify.com/v1/browse/categories?country=SE&locale=sv_SE&offset=3&limit=2",
    "offset" : 1,
    "previous" : "https://api.spotify.com/v1/browse/categories?country=SE&locale=sv_SE&offset=0&limit=2",
    "total" : 31
  }
}